TIME,NS1_FLOW [m^3 s^-1],NS1_SALT_FLUX [psu m^3 s^-1],NS1_TEMP_FLUX [degrees celsius m^3 s^-1],NS2_FLOW [m^3 s^-1],NS2_SALT_FLUX [psu m^3 s^-1],NS2_TEMP_FLUX [degrees celsius m^3 s^-1]
01/05/2011 00:00:00,  0.0000000E+00,  0.0000000E+00,  0.0000000E+00,  0.0000000E+00,  0.0000000E+00,  0.0000000E+00
01/05/2011 00:15:00,  0.2000002E+02, -0.1419758E+01,  0.1985813E+03,  0.1759409E+03,  0.6171346E+04,  0.3518823E+04
01/05/2011 00:30:00,  0.2000010E+02, -0.9777236E+00,  0.1990242E+03,  0.7547833E+02,  0.2652960E+04,  0.1509574E+04
01/05/2011 00:45:00,  0.2000009E+02, -0.9112605E+00,  0.1990905E+03, -0.7407583E+02, -0.2011741E+04, -0.1480758E+04
01/05/2011 01:00:00,  0.2000010E+02, -0.1544342E+01,  0.1984573E+03, -0.2135698E+03, -0.5018157E+04, -0.4266473E+04
01/05/2011 01:15:00,  0.1999999E+02, -0.2264538E+01,  0.1977360E+03, -0.2318442E+03, -0.4276402E+04, -0.4628450E+04
01/05/2011 01:30:00,  0.2000003E+02, -0.2826187E+01,  0.1971748E+03, -0.2719678E+03, -0.3952281E+04, -0.5426042E+04
01/05/2011 01:45:00,  0.2000007E+02, -0.3117262E+01,  0.1968842E+03, -0.2394293E+03, -0.2917242E+04, -0.4773747E+04
01/05/2011 02:00:00,  0.2000005E+02, -0.3265464E+01,  0.1967359E+03, -0.1290201E+03, -0.1380311E+04, -0.2569888E+04
01/05/2011 02:15:00,  0.2000014E+02, -0.3350117E+01,  0.1966523E+03, -0.1091938E+02,  0.4816909E+03, -0.2145696E+03
01/05/2011 02:30:00,  0.2000014E+02, -0.3293539E+01,  0.1967090E+03,  0.3854239E+02,  0.1554927E+04,  0.7719396E+03
01/05/2011 02:45:00,  0.2000010E+02, -0.3207597E+01,  0.1967946E+03,  0.7935157E+01,  0.6585370E+03,  0.1608746E+03
01/05/2011 03:00:00,  0.2000004E+02, -0.3241978E+01,  0.1967596E+03, -0.4800120E+02, -0.5920964E+03, -0.9536588E+03
01/05/2011 03:15:00,  0.2000004E+02, -0.3375504E+01,  0.1966263E+03, -0.7677193E+02, -0.1082693E+04, -0.1526105E+04
01/05/2011 03:30:00,  0.2000006E+02, -0.3490511E+01,  0.1965117E+03, -0.9537527E+02, -0.1330382E+04, -0.1895658E+04
01/05/2011 03:45:00,  0.2000008E+02, -0.3481956E+01,  0.1965205E+03, -0.9871558E+02, -0.1308638E+04, -0.1961335E+04
01/05/2011 04:00:00,  0.2000004E+02, -0.3399052E+01,  0.1966031E+03, -0.6609814E+02, -0.7780275E+03, -0.1311825E+04
01/05/2011 04:15:00,  0.2000006E+02, -0.3308937E+01,  0.1966935E+03,  0.1634151E+02,  0.8468018E+03,  0.3290919E+03
01/05/2011 04:30:00,  0.1999993E+02, -0.3235960E+01,  0.1967651E+03,  0.8366410E+02,  0.2945353E+04,  0.1673393E+04
01/05/2011 04:45:00,  0.2000010E+02, -0.3134874E+01,  0.1968681E+03,  0.1007185E+03,  0.3536608E+04,  0.2014453E+04
01/05/2011 05:00:00,  0.2000008E+02, -0.3023868E+01,  0.1969787E+03,  0.8146243E+02,  0.2859029E+04,  0.1629313E+04
01/05/2011 05:15:00,  0.2000008E+02, -0.3001883E+01,  0.1970007E+03,  0.7413924E+02,  0.2600570E+04,  0.1482839E+04
01/05/2011 05:30:00,  0.2000004E+02, -0.3060395E+01,  0.1969418E+03,  0.6713363E+02,  0.2353958E+04,  0.1342719E+04
01/05/2011 05:45:00,  0.1999998E+02, -0.3096759E+01,  0.1969050E+03,  0.4942129E+02,  0.1733102E+04,  0.9884668E+03
01/05/2011 06:00:00,  0.2000002E+02, -0.3075958E+01,  0.1969263E+03,  0.4357597E+02,  0.1527977E+04,  0.8715581E+03
01/05/2011 06:15:00,  0.2000012E+02, -0.3069205E+01,  0.1969340E+03,  0.7522002E+02,  0.2634978E+04,  0.1504435E+04
01/05/2011 06:30:00,  0.2000002E+02, -0.3084228E+01,  0.1969180E+03,  0.1195699E+03,  0.4186545E+04,  0.2391426E+04
01/05/2011 06:45:00,  0.2000004E+02, -0.3104882E+01,  0.1968976E+03,  0.1376494E+03,  0.4818784E+04,  0.2753009E+04
01/05/2011 07:00:00,  0.2000005E+02, -0.3115977E+01,  0.1968867E+03,  0.1313165E+03,  0.4596786E+04,  0.2626348E+04
01/05/2011 07:15:00,  0.2000006E+02, -0.3167707E+01,  0.1968351E+03,  0.1147443E+03,  0.4016530E+04,  0.2294901E+04
01/05/2011 07:30:00,  0.2000006E+02, -0.3273654E+01,  0.1967293E+03,  0.9694862E+02,  0.3393540E+04,  0.1938985E+04
01/05/2011 07:45:00,  0.2000001E+02, -0.3389885E+01,  0.1966128E+03,  0.7419615E+02,  0.2597413E+04,  0.1483936E+04
01/05/2011 08:00:00,  0.2000011E+02, -0.3485743E+01,  0.1965181E+03,  0.5739064E+02,  0.2009534E+04,  0.1147827E+04
01/05/2011 08:15:00,  0.1999999E+02, -0.3558770E+01,  0.1964440E+03,  0.4669153E+02,  0.1635528E+04,  0.9338472E+03
01/05/2011 08:30:00,  0.2000007E+02, -0.3618510E+01,  0.1963850E+03,  0.5153580E+02,  0.1804703E+04,  0.1030731E+04
01/05/2011 08:45:00,  0.2000007E+02, -0.3692269E+01,  0.1963115E+03,  0.5843127E+02,  0.2045722E+04,  0.1168640E+04
01/05/2011 09:00:00,  0.2000009E+02, -0.3754242E+01,  0.1962498E+03,  0.6117406E+02,  0.2141537E+04,  0.1223494E+04
01/05/2011 09:15:00,  0.2000005E+02, -0.3793337E+01,  0.1962104E+03,  0.3304571E+02,  0.1158600E+04,  0.6609330E+03
01/05/2011 09:30:00,  0.2000006E+02, -0.3832938E+01,  0.1961710E+03, -0.1299930E+01, -0.3885503E+02, -0.2595484E+02
01/05/2011 09:45:00,  0.2000013E+02, -0.3898238E+01,  0.1961065E+03, -0.2304485E+02, -0.7933629E+03, -0.4607806E+03
01/05/2011 10:00:00,  0.2000002E+02, -0.3961450E+01,  0.1960422E+03, -0.3092522E+02, -0.1062764E+04, -0.6183050E+03
01/05/2011 10:15:00,  0.2000007E+02, -0.3938976E+01,  0.1960650E+03, -0.4850098E+02, -0.1663567E+04, -0.9693448E+03
01/05/2011 10:30:00,  0.2000007E+02, -0.3862364E+01,  0.1961415E+03, -0.5937347E+02, -0.2026055E+04, -0.1186191E+04
01/05/2011 10:45:00,  0.2000003E+02, -0.3814675E+01,  0.1961885E+03, -0.5102337E+02, -0.1728904E+04, -0.1019135E+04
01/05/2011 11:00:00,  0.2000009E+02, -0.3779523E+01,  0.1962240E+03, -0.3866153E+02, -0.1300938E+04, -0.7721398E+03
01/05/2011 11:15:00,  0.2000003E+02, -0.3608031E+01,  0.1963943E+03, -0.7272371E+02, -0.2433750E+04, -0.1451620E+04
01/05/2011 11:30:00,  0.1999995E+02, -0.3391320E+01,  0.1966097E+03, -0.1202065E+03, -0.3968179E+04, -0.2397976E+04
01/05/2011 11:45:00,  0.1999998E+02, -0.3269860E+01,  0.1967309E+03, -0.1457042E+03, -0.4696750E+04, -0.2904532E+04
01/05/2011 12:00:00,  0.2000002E+02, -0.3161931E+01,  0.1968387E+03, -0.1502258E+03, -0.4683503E+04, -0.2992276E+04
01/05/2011 12:15:00,  0.2000009E+02, -0.2891427E+01,  0.1971093E+03, -0.1487343E+03, -0.4442277E+04, -0.2960233E+04
01/05/2011 12:30:00,  0.2000011E+02, -0.2575456E+01,  0.1974248E+03, -0.1404545E+03, -0.3993132E+04, -0.2793466E+04
01/05/2011 12:45:00,  0.2000002E+02, -0.2278720E+01,  0.1977201E+03, -0.1137087E+03, -0.3071882E+04, -0.2260142E+04
01/05/2011 13:00:00,  0.1999997E+02, -0.2033651E+01,  0.1979641E+03, -0.9142906E+02, -0.2361072E+04, -0.1816515E+04
01/05/2011 13:15:00,  0.2000008E+02, -0.1680331E+01,  0.1983181E+03, -0.9065292E+02, -0.2245334E+04, -0.1800680E+04
01/05/2011 13:30:00,  0.2000002E+02, -0.1314552E+01,  0.1986831E+03, -0.1091521E+03, -0.2581897E+04, -0.2167678E+04
01/05/2011 13:45:00,  0.2000007E+02, -0.1086990E+01,  0.1989108E+03, -0.1262686E+03, -0.2831456E+04, -0.2506875E+04
01/05/2011 14:00:00,  0.2000005E+02, -0.9212207E+00,  0.1990757E+03, -0.1351189E+03, -0.2845946E+04, -0.2681734E+04
01/05/2011 14:15:00,  0.2000006E+02, -0.7030373E+00,  0.1992937E+03, -0.1257462E+03, -0.2488329E+04, -0.2495194E+04
01/05/2011 14:30:00,  0.2000018E+02, -0.5102643E+00,  0.1994878E+03, -0.1091907E+03, -0.2039941E+04, -0.2166491E+04
01/05/2011 14:45:00,  0.2000005E+02, -0.3821740E+00,  0.1996144E+03, -0.8950040E+02, -0.1589266E+04, -0.1775859E+04
01/05/2011 15:00:00,  0.2000000E+02, -0.2972564E+00,  0.1996986E+03, -0.7168143E+02, -0.1217106E+04, -0.1422459E+04
01/05/2011 15:15:00,  0.1999999E+02, -0.1729039E+00,  0.1998236E+03, -0.4504933E+02, -0.7034096E+03, -0.8938959E+03
01/05/2011 15:30:00,  0.2000003E+02, -0.1073718E+00,  0.1998899E+03, -0.2670339E+02, -0.3435690E+03, -0.5294791E+03
01/05/2011 15:45:00,  0.2000014E+02, -0.7740282E-01,  0.1999210E+03, -0.2712358E+02, -0.3653531E+03, -0.5381001E+03
01/05/2011 16:00:00,  0.2000004E+02, -0.6020949E-01,  0.1999370E+03, -0.3588452E+02, -0.5406826E+03, -0.7124786E+03
01/05/2011 16:15:00,  0.2000001E+02, -0.3402567E-01,  0.1999633E+03, -0.1918107E+02, -0.2146313E+03, -0.3804349E+03
01/05/2011 16:30:00,  0.2000005E+02, -0.2009836E-01,  0.1999781E+03,  0.7358160E+01,  0.3749353E+03,  0.1479701E+03
01/05/2011 16:45:00,  0.2000009E+02, -0.1424199E-01,  0.1999845E+03,  0.2086120E+02,  0.7532166E+03,  0.4174043E+03
01/05/2011 17:00:00,  0.2000002E+02, -0.1061404E-01,  0.1999876E+03,  0.2580835E+02,  0.9167355E+03,  0.5162727E+03
01/05/2011 17:15:00,  0.2000015E+02, -0.7521818E-02,  0.1999925E+03,  0.5189988E+02,  0.1828221E+04,  0.1038090E+04
01/05/2011 17:30:00,  0.2000000E+02, -0.4897142E-02,  0.1999941E+03,  0.7866643E+02,  0.2762350E+04,  0.1573401E+04
01/05/2011 17:45:00,  0.2000005E+02, -0.3638000E-02,  0.1999961E+03,  0.8155141E+02,  0.2860847E+04,  0.1631082E+04
01/05/2011 18:00:00,  0.2000003E+02, -0.2714377E-02,  0.1999970E+03,  0.7005326E+02,  0.2456645E+04,  0.1401107E+04
01/05/2011 18:15:00,  0.1999999E+02, -0.2052497E-02,  0.1999976E+03,  0.8025647E+02,  0.2812568E+04,  0.1605163E+04
01/05/2011 18:30:00,  0.2000008E+02, -0.1521616E-02,  0.1999992E+03,  0.1018201E+03,  0.3566188E+04,  0.2036429E+04
01/05/2011 18:45:00,  0.2000002E+02, -0.1143073E-02,  0.1999991E+03,  0.1084889E+03,  0.3798767E+04,  0.2169798E+04
01/05/2011 19:00:00,  0.2000012E+02, -0.8718322E-03,  0.2000005E+03,  0.1051518E+03,  0.3681421E+04,  0.2103054E+04
01/05/2011 19:15:00,  0.2000001E+02, -0.6612728E-03,  0.1999998E+03,  0.1048787E+03,  0.3671502E+04,  0.2097589E+04
01/05/2011 19:30:00,  0.1999998E+02, -0.5016014E-03,  0.1999997E+03,  0.1087232E+03,  0.3805829E+04,  0.2174479E+04
01/05/2011 19:45:00,  0.2000006E+02, -0.3782122E-03,  0.2000008E+03,  0.1002236E+03,  0.3508181E+04,  0.2004486E+04
01/05/2011 20:00:00,  0.2000009E+02, -0.2916483E-03,  0.2000011E+03,  0.8590688E+02,  0.3006998E+04,  0.1718152E+04
01/05/2011 20:15:00,  0.2000013E+02, -0.2229679E-03,  0.2000017E+03,  0.6732722E+02,  0.2356648E+04,  0.1346561E+04
01/05/2011 20:30:00,  0.2000007E+02, -0.1703565E-03,  0.2000011E+03,  0.5859439E+02,  0.2050962E+04,  0.1171906E+04
01/05/2011 20:45:00,  0.2000011E+02, -0.1306004E-03,  0.2000017E+03,  0.5551147E+02,  0.1943035E+04,  0.1110250E+04
01/05/2011 21:00:00,  0.1999998E+02, -0.1013685E-03,  0.2000005E+03,  0.5503185E+02,  0.1926229E+04,  0.1100661E+04
01/05/2011 21:15:00,  0.2000003E+02, -0.7901819E-04,  0.2000010E+03,  0.3346638E+02,  0.1171424E+04,  0.6693546E+03
01/05/2011 21:30:00,  0.2000007E+02, -0.6113675E-04,  0.2000014E+03,  0.1154138E+02,  0.4044312E+03,  0.2309975E+03
01/05/2011 21:45:00,  0.1999990E+02, -0.4733143E-04,  0.1999998E+03,  0.3332866E+00,  0.1277562E+02,  0.7052943E+01
01/05/2011 22:00:00,  0.2000006E+02, -0.3710766E-04,  0.2000014E+03, -0.3818065E+01, -0.1321089E+03, -0.7574307E+02
01/05/2011 22:15:00,  0.2000008E+02, -0.2919535E-04,  0.2000016E+03, -0.3912440E+02, -0.1361800E+04, -0.7796853E+03
01/05/2011 22:30:00,  0.2000005E+02, -0.2287185E-04,  0.2000013E+03, -0.7102764E+02, -0.2463955E+04, -0.1414729E+04
01/05/2011 22:45:00,  0.2000001E+02, -0.1796282E-04,  0.2000010E+03, -0.7974667E+02, -0.2748844E+04, -0.1587012E+04
01/05/2011 23:00:00,  0.2000000E+02, -0.1425458E-04,  0.2000010E+03, -0.7389246E+02, -0.2525503E+04, -0.1469055E+04
01/05/2011 23:15:00,  0.2000008E+02, -0.1138033E-04,  0.2000017E+03, -0.9454510E+02, -0.3193865E+04, -0.1878222E+04
01/05/2011 23:30:00,  0.2000016E+02, -0.9049249E-05,  0.2000025E+03, -0.1174640E+03, -0.3892821E+04, -0.2331340E+04
01/05/2011 23:45:00,  0.2000003E+02, -0.7208733E-05,  0.2000013E+03, -0.1214536E+03, -0.3915783E+04, -0.2407755E+04
02/05/2011 00:00:00,  0.1999989E+02, -0.5808321E-05,  0.1999999E+03, -0.1159068E+03, -0.3614293E+04, -0.2295113E+04
02/05/2011 00:15:00,  0.2000006E+02, -0.4734092E-05,  0.2000016E+03, -0.1277679E+03, -0.3836718E+04, -0.2527512E+04
02/05/2011 00:30:00,  0.2000008E+02, -0.3812846E-05,  0.2000019E+03, -0.1462135E+03, -0.4173802E+04, -0.2889359E+04
02/05/2011 00:45:00,  0.2000003E+02, -0.3103196E-05,  0.2000013E+03, -0.1475791E+03, -0.3968601E+04, -0.2913011E+04
02/05/2011 01:00:00,  0.1999999E+02, -0.2541911E-05,  0.2000010E+03, -0.1404616E+03, -0.3537947E+04, -0.2769396E+04
02/05/2011 01:15:00,  0.2000000E+02, -0.2102642E-05,  0.2000010E+03, -0.1379254E+03, -0.3259465E+04, -0.2716749E+04
02/05/2011 01:30:00,  0.2000007E+02, -0.1742349E-05,  0.2000018E+03, -0.1391218E+03, -0.3087143E+04, -0.2737976E+04
02/05/2011 01:45:00,  0.2000004E+02, -0.1456026E-05,  0.2000014E+03, -0.1345833E+03, -0.2802545E+04, -0.2646332E+04
02/05/2011 02:00:00,  0.2000009E+02, -0.1225050E-05,  0.2000020E+03, -0.1282567E+03, -0.2508614E+04, -0.2519691E+04
02/05/2011 02:15:00,  0.2000009E+02, -0.1039929E-05,  0.2000019E+03, -0.1197683E+03, -0.2210857E+04, -0.2351010E+04
02/05/2011 02:30:00,  0.2000003E+02, -0.8867663E-06,  0.2000014E+03, -0.1164698E+03, -0.2045327E+04, -0.2284575E+04
02/05/2011 02:45:00,  0.1999998E+02, -0.7616314E-06,  0.2000009E+03, -0.1133756E+03, -0.1896094E+04, -0.2222136E+04
02/05/2011 03:00:00,  0.2000004E+02, -0.6640308E-06,  0.2000015E+03, -0.1106480E+03, -0.1769026E+04, -0.2166930E+04
02/05/2011 03:15:00,  0.2000000E+02, -0.5813030E-06,  0.2000011E+03, -0.9311980E+02, -0.1421547E+04, -0.1822315E+04
02/05/2011 03:30:00,  0.2000009E+02, -0.5105871E-06,  0.2000020E+03, -0.7564036E+02, -0.1111121E+04, -0.1479326E+04
02/05/2011 03:45:00,  0.2000007E+02, -0.4515482E-06,  0.2000018E+03, -0.6678982E+02, -0.9529156E+03, -0.1305374E+04
02/05/2011 04:00:00,  0.2000006E+02, -0.4053958E-06,  0.2000017E+03, -0.6456030E+02, -0.9030212E+03, -0.1260939E+04
02/05/2011 04:15:00,  0.1999999E+02, -0.3641579E-06,  0.2000010E+03, -0.3950763E+02, -0.5044714E+03, -0.7705996E+03
02/05/2011 04:30:00,  0.2000007E+02, -0.3276366E-06,  0.2000017E+03, -0.1265874E+02, -0.4420542E+02, -0.2442992E+03
02/05/2011 04:45:00,  0.2000005E+02, -0.2973505E-06,  0.2000015E+03, -0.2275187E+01,  0.1392068E+03, -0.4063385E+02
02/05/2011 05:00:00,  0.2000012E+02, -0.2727940E-06,  0.2000021E+03, -0.3494332E+01,  0.9051367E+02, -0.6506996E+02
02/05/2011 05:15:00,  0.2000009E+02, -0.2496685E-06,  0.2000017E+03,  0.2051993E+02,  0.7430024E+03,  0.4110140E+03
02/05/2011 05:30:00,  0.2000010E+02, -0.2288683E-06,  0.2000017E+03,  0.4856542E+02,  0.1714343E+04,  0.9716815E+03
02/05/2011 05:45:00,  0.2000008E+02, -0.2118022E-06,  0.2000015E+03,  0.5658857E+02,  0.1992194E+04,  0.1132074E+04
02/05/2011 06:00:00,  0.2000006E+02, -0.1976672E-06,  0.2000014E+03,  0.5133307E+02,  0.1805871E+04,  0.1026909E+04
02/05/2011 06:15:00,  0.2000005E+02, -0.1838684E-06,  0.2000011E+03,  0.6974459E+02,  0.2448319E+04,  0.1395093E+04
02/05/2011 06:30:00,  0.2000007E+02, -0.1705094E-06,  0.2000014E+03,  0.9452225E+02,  0.3313435E+04,  0.1890594E+04
02/05/2011 06:45:00,  0.2000005E+02, -0.1596333E-06,  0.2000011E+03,  0.9952703E+02,  0.3486844E+04,  0.1990646E+04
02/05/2011 07:00:00,  0.2000005E+02, -0.1508492E-06,  0.2000013E+03,  0.9167064E+02,  0.3210769E+04,  0.1833491E+04
02/05/2011 07:15:00,  0.2000008E+02, -0.1420132E-06,  0.2000014E+03,  0.9981660E+02,  0.3495167E+04,  0.1996392E+04
02/05/2011 07:30:00,  0.2000003E+02, -0.1330506E-06,  0.2000009E+03,  0.1160350E+03,  0.4062291E+04,  0.2320748E+04
02/05/2011 07:45:00,  0.2000006E+02, -0.1254224E-06,  0.2000012E+03,  0.1177168E+03,  0.4120788E+04,  0.2354374E+04
02/05/2011 08:00:00,  0.2000006E+02, -0.1193795E-06,  0.2000013E+03,  0.1091887E+03,  0.3822074E+04,  0.2183805E+04
02/05/2011 08:15:00,  0.2000005E+02, -0.1132599E-06,  0.2000010E+03,  0.1015883E+03,  0.3555912E+04,  0.2031794E+04
02/05/2011 08:30:00,  0.2000008E+02, -0.1070910E-06,  0.2000014E+03,  0.1013335E+03,  0.3546900E+04,  0.2026695E+04
02/05/2011 08:45:00,  0.2000003E+02, -0.1015079E-06,  0.2000008E+03,  0.9579560E+02,  0.3353011E+04,  0.1915937E+04
02/05/2011 09:00:00,  0.2000008E+02, -0.9700400E-07,  0.2000013E+03,  0.8738796E+02,  0.3058703E+04,  0.1747784E+04
02/05/2011 09:15:00,  0.2000000E+02, -0.9295352E-07,  0.2000004E+03,  0.6717629E+02,  0.2351267E+04,  0.1343550E+04
02/05/2011 09:30:00,  0.2000005E+02, -0.8925250E-07,  0.2000009E+03,  0.5208007E+02,  0.1822884E+04,  0.1041627E+04
02/05/2011 09:45:00,  0.2000013E+02, -0.8589422E-07,  0.2000016E+03,  0.4431950E+02,  0.1551286E+04,  0.8864317E+03
02/05/2011 10:00:00,  0.2000000E+02, -0.8295839E-07,  0.2000001E+03,  0.4087965E+02,  0.1430896E+04,  0.8176430E+03
02/05/2011 10:15:00,  0.2000007E+02, -0.8063379E-07,  0.2000007E+03,  0.1773354E+02,  0.6212000E+03,  0.3548982E+03
02/05/2011 10:30:00,  0.2000016E+02, -0.7846457E-07,  0.2000014E+03, -0.4460875E+01, -0.1544549E+03, -0.8850175E+02
02/05/2011 10:45:00,  0.1999998E+02, -0.7601412E-07,  0.1999993E+03, -0.1077422E+02, -0.3745092E+03, -0.2144671E+03
02/05/2011 11:00:00,  0.1999992E+02, -0.7357399E-07,  0.1999983E+03, -0.9062696E+01, -0.3142920E+03, -0.1802298E+03
02/05/2011 11:15:00,  0.2000000E+02, -0.7167138E-07,  0.1999988E+03, -0.3956973E+02, -0.1376480E+04, -0.7888769E+03
02/05/2011 11:30:00,  0.2000011E+02, -0.7016659E-07,  0.1999996E+03, -0.7420441E+02, -0.2575012E+04, -0.1479317E+04
02/05/2011 11:45:00,  0.2000002E+02, -0.6846793E-07,  0.1999985E+03, -0.8649598E+02, -0.2985178E+04, -0.1723476E+04
02/05/2011 12:00:00,  0.2000007E+02, -0.6656180E-07,  0.1999988E+03, -0.8336326E+02, -0.2853615E+04, -0.1659935E+04
02/05/2011 12:15:00,  0.2000011E+02, -0.6543609E-07,  0.1999991E+03, -0.1050701E+03, -0.3557567E+04, -0.2090823E+04
02/05/2011 12:30:00,  0.2000016E+02, -0.6490023E-07,  0.1999994E+03, -0.1277135E+03, -0.4246790E+04, -0.2538855E+04
02/05/2011 12:45:00,  0.2000010E+02, -0.6413384E-07,  0.1999987E+03, -0.1285804E+03, -0.4166618E+04, -0.2552665E+04
02/05/2011 13:00:00,  0.2000006E+02, -0.6274460E-07,  0.1999983E+03, -0.1187573E+03, -0.3729624E+04, -0.2354230E+04
02/05/2011 13:15:00,  0.1999996E+02, -0.6146103E-07,  0.1999973E+03, -0.1250229E+03, -0.3785411E+04, -0.2474740E+04
02/05/2011 13:30:00,  0.2000009E+02, -0.6060553E-07,  0.1999985E+03, -0.1376333E+03, -0.3988169E+04, -0.2719859E+04
02/05/2011 13:45:00,  0.1999996E+02, -0.5959904E-07,  0.1999972E+03, -0.1356691E+03, -0.3727842E+04, -0.2676021E+04
02/05/2011 14:00:00,  0.1999997E+02, -0.5826660E-07,  0.1999974E+03, -0.1297370E+03, -0.3373482E+04, -0.2554417E+04
02/05/2011 14:15:00,  0.2000001E+02, -0.5723210E-07,  0.1999978E+03, -0.1196049E+03, -0.2939002E+04, -0.2350954E+04
02/05/2011 14:30:00,  0.2000008E+02, -0.5659638E-07,  0.1999984E+03, -0.1118362E+03, -0.2605929E+04, -0.2195096E+04
02/05/2011 14:45:00,  0.2000006E+02, -0.5594826E-07,  0.1999983E+03, -0.1017948E+03, -0.2256145E+04, -0.1995471E+04
02/05/2011 15:00:00,  0.2000009E+02, -0.5481779E-07,  0.1999986E+03, -0.9398869E+02, -0.1986258E+04, -0.1840324E+04
02/05/2011 15:15:00,  0.1999999E+02, -0.5358720E-07,  0.1999975E+03, -0.8249886E+02, -0.1667692E+04, -0.1613746E+04
02/05/2011 15:30:00,  0.2000009E+02, -0.5250907E-07,  0.1999985E+03, -0.7591476E+02, -0.1477879E+04, -0.1483768E+04
02/05/2011 15:45:00,  0.2000005E+02, -0.5158419E-07,  0.1999982E+03, -0.7608560E+02, -0.1432638E+04, -0.1486015E+04
02/05/2011 16:00:00,  0.2000008E+02, -0.5044168E-07,  0.1999986E+03, -0.7811763E+02, -0.1420886E+04, -0.1524521E+04
02/05/2011 16:15:00,  0.2000011E+02, -0.4918627E-07,  0.1999989E+03, -0.6177983E+02, -0.1075816E+04, -0.1204717E+04
02/05/2011 16:30:00,  0.1999999E+02, -0.4803206E-07,  0.1999977E+03, -0.4192613E+02, -0.6889156E+03, -0.8166529E+03
02/05/2011 16:45:00,  0.2000003E+02, -0.4706903E-07,  0.1999984E+03, -0.3162082E+02, -0.4867386E+03, -0.6150208E+03
02/05/2011 17:00:00,  0.1999997E+02, -0.4590554E-07,  0.1999982E+03, -0.2897599E+02, -0.4375951E+03, -0.5632701E+03
02/05/2011 17:15:00,  0.2000006E+02, -0.4441947E-07,  0.1999995E+03, -0.3796468E+01,  0.8210327E+02, -0.6991003E+02
02/05/2011 17:30:00,  0.2000010E+02, -0.4289463E-07,  0.2000003E+03,  0.2428481E+02,  0.8647589E+03,  0.4861383E+03
02/05/2011 17:45:00,  0.2000011E+02, -0.4172481E-07,  0.2000006E+03,  0.3333027E+02,  0.1179766E+04,  0.6670030E+03
02/05/2011 18:00:00,  0.2000004E+02, -0.4049210E-07,  0.2000002E+03,  0.2972219E+02,  0.1051865E+04,  0.5947963E+03
02/05/2011 18:15:00,  0.1999998E+02, -0.3896362E-07,  0.1999998E+03,  0.4910522E+02,  0.1728725E+04,  0.9824142E+03
02/05/2011 18:30:00,  0.2000007E+02, -0.3737938E-07,  0.2000009E+03,  0.7558585E+02,  0.2653279E+04,  0.1511962E+04
02/05/2011 18:45:00,  0.2000002E+02, -0.3618838E-07,  0.2000006E+03,  0.8147715E+02,  0.2857345E+04,  0.1629725E+04
02/05/2011 19:00:00,  0.2000001E+02, -0.3510943E-07,  0.2000006E+03,  0.7612538E+02,  0.2668499E+04,  0.1522645E+04
02/05/2011 19:15:00,  0.2000001E+02, -0.3370123E-07,  0.2000007E+03,  0.8729702E+02,  0.3058364E+04,  0.1746045E+04
02/05/2011 19:30:00,  0.2000005E+02, -0.3224476E-07,  0.2000012E+03,  0.1053730E+03,  0.3690092E+04,  0.2107536E+04
02/05/2011 19:45:00,  0.2000008E+02, -0.3101336E-07,  0.2000015E+03,  0.1057847E+03,  0.3703802E+04,  0.2115750E+04
02/05/2011 20:00:00,  0.2000005E+02, -0.2999931E-07,  0.2000013E+03,  0.9572506E+02,  0.3351294E+04,  0.1914544E+04
02/05/2011 20:15:00,  0.2000001E+02, -0.2884230E-07,  0.2000010E+03,  0.9255452E+02,  0.3240057E+04,  0.1851126E+04
02/05/2011 20:30:00,  0.2000003E+02, -0.2765744E-07,  0.2000012E+03,  0.9766617E+02,  0.3418781E+04,  0.1953353E+04
02/05/2011 20:45:00,  0.1999996E+02, -0.2659161E-07,  0.2000005E+03,  0.9461810E+02,  0.3311965E+04,  0.1892388E+04
02/05/2011 21:00:00,  0.2000007E+02, -0.2569479E-07,  0.2000016E+03,  0.8740105E+02,  0.3059281E+04,  0.1748046E+04
02/05/2011 21:15:00,  0.2000007E+02, -0.2492315E-07,  0.2000016E+03,  0.7066972E+02,  0.2473627E+04,  0.1413418E+04
02/05/2011 21:30:00,  0.2000003E+02, -0.2416997E-07,  0.2000012E+03,  0.5971727E+02,  0.2090256E+04,  0.1194370E+04
02/05/2011 21:45:00,  0.1999995E+02, -0.2347189E-07,  0.2000005E+03,  0.5049263E+02,  0.1767371E+04,  0.1009879E+04
02/05/2011 22:00:00,  0.2000006E+02, -0.2285202E-07,  0.2000017E+03,  0.4458413E+02,  0.1560559E+04,  0.8917110E+03
02/05/2011 22:15:00,  0.2000007E+02, -0.2226749E-07,  0.2000017E+03,  0.1390159E+02,  0.4870872E+03,  0.2781324E+03
02/05/2011 22:30:00,  0.2000012E+02, -0.2169434E-07,  0.2000022E+03, -0.1394635E+02, -0.4851421E+03, -0.2783396E+03
02/05/2011 22:45:00,  0.2000009E+02, -0.2109980E-07,  0.2000020E+03, -0.2626892E+02, -0.9135754E+03, -0.5240019E+03
02/05/2011 23:00:00,  0.2000006E+02, -0.2053303E-07,  0.2000016E+03, -0.2640467E+02, -0.9166485E+03, -0.5263718E+03
02/05/2011 23:15:00,  0.1999999E+02, -0.2010364E-07,  0.2000010E+03, -0.5446782E+02, -0.1886170E+04, -0.1085094E+04
02/05/2011 23:30:00,  0.2000009E+02, -0.1977353E-07,  0.2000020E+03, -0.8021716E+02, -0.2761120E+04, -0.1596482E+04
02/05/2011 23:45:00,  0.1999994E+02, -0.1940546E-07,  0.2000004E+03, -0.8530591E+02, -0.2907877E+04, -0.1695598E+04
03/05/2011 00:00:00,  0.1999998E+02, -0.1900831E-07,  0.2000009E+03, -0.7926410E+02, -0.2668902E+04, -0.1573312E+04
03/05/2011 00:15:00,  0.2000002E+02, -0.1872992E-07,  0.2000013E+03, -0.1011563E+03, -0.3350120E+04, -0.2004829E+04
03/05/2011 00:30:00,  0.2000013E+02, -0.1857037E-07,  0.2000024E+03, -0.1282306E+03, -0.4132106E+04, -0.2535946E+04
03/05/2011 00:45:00,  0.2000000E+02, -0.1841437E-07,  0.2000010E+03, -0.1332823E+03, -0.4139407E+04, -0.2629011E+04
03/05/2011 01:00:00,  0.2000003E+02, -0.1818895E-07,  0.2000013E+03, -0.1274079E+03, -0.3782784E+04, -0.2505960E+04
03/05/2011 01:15:00,  0.2000005E+02, -0.1794151E-07,  0.2000014E+03, -0.1382726E+03, -0.3904430E+04, -0.2711896E+04
03/05/2011 01:30:00,  0.2000007E+02, -0.1776692E-07,  0.2000017E+03, -0.1543744E+03, -0.4094647E+04, -0.3017902E+04
03/05/2011 01:45:00,  0.2000002E+02, -0.1756677E-07,  0.2000012E+03, -0.1533699E+03, -0.3794369E+04, -0.2988306E+04
03/05/2011 02:00:00,  0.2000002E+02, -0.1724540E-07,  0.2000012E+03, -0.1451556E+03, -0.3335859E+04, -0.2819019E+04
03/05/2011 02:15:00,  0.2000000E+02, -0.1697933E-07,  0.2000010E+03, -0.1432456E+03, -0.3071635E+04, -0.2773879E+04
03/05/2011 02:30:00,  0.2000004E+02, -0.1682639E-07,  0.2000014E+03, -0.1439595E+03, -0.2886737E+04, -0.2780355E+04
03/05/2011 02:45:00,  0.1999998E+02, -0.1668348E-07,  0.2000009E+03, -0.1385335E+03, -0.2603445E+04, -0.2668984E+04
03/05/2011 03:00:00,  0.1999994E+02, -0.1642518E-07,  0.2000005E+03, -0.1326197E+03, -0.2344171E+04, -0.2549152E+04
03/05/2011 03:15:00,  0.2000002E+02, -0.1612396E-07,  0.2000013E+03, -0.1229014E+03, -0.2052030E+04, -0.2357296E+04
03/05/2011 03:30:00,  0.2000009E+02, -0.1587978E-07,  0.2000020E+03, -0.1179569E+03, -0.1876695E+04, -0.2258305E+04
03/05/2011 03:45:00,  0.1999997E+02, -0.1566636E-07,  0.2000009E+03, -0.1136803E+03, -0.1729799E+04, -0.2172643E+04
03/05/2011 04:00:00,  0.2000000E+02, -0.1538653E-07,  0.2000012E+03, -0.1111384E+03, -0.1626197E+04, -0.2120608E+04
03/05/2011 04:15:00,  0.2000003E+02, -0.1501473E-07,  0.2000014E+03, -0.9200231E+02, -0.1287812E+04, -0.1752510E+04
03/05/2011 04:30:00,  0.2000007E+02, -0.1466519E-07,  0.2000018E+03, -0.7347488E+02, -0.9912977E+03, -0.1397642E+04
03/05/2011 04:45:00,  0.2000010E+02, -0.1434809E-07,  0.2000023E+03, -0.6270555E+02, -0.8230699E+03, -0.1191347E+04
03/05/2011 05:00:00,  0.1999997E+02, -0.1398761E-07,  0.2000010E+03, -0.5975947E+02, -0.7726006E+03, -0.1134219E+04
03/05/2011 05:15:00,  0.2000006E+02, -0.1351979E-07,  0.2000019E+03, -0.3221168E+02, -0.3481679E+03, -0.6081323E+03
03/05/2011 05:30:00,  0.2000002E+02, -0.1301822E-07,  0.2000015E+03, -0.1441853E+01,  0.1987934E+03, -0.1737539E+02
03/05/2011 05:45:00,  0.2000007E+02, -0.1262043E-07,  0.2000021E+03,  0.1007011E+02,  0.4521045E+03,  0.2060620E+03
03/05/2011 06:00:00,  0.2000009E+02, -0.1222961E-07,  0.2000022E+03,  0.9274867E+01,  0.4120233E+03,  0.1896178E+03
03/05/2011 06:15:00,  0.2000004E+02, -0.1172456E-07,  0.2000018E+03,  0.3220018E+02,  0.1142759E+04,  0.6447821E+03
03/05/2011 06:30:00,  0.2000022E+02, -0.1120810E-07,  0.2000036E+03,  0.5920216E+02,  0.2085177E+04,  0.1184696E+04
03/05/2011 06:45:00,  0.2000008E+02, -0.1080143E-07,  0.2000021E+03,  0.6475580E+02,  0.2276580E+04,  0.1295626E+04
03/05/2011 07:00:00,  0.2000000E+02, -0.1045630E-07,  0.2000014E+03,  0.5855662E+02,  0.2057327E+04,  0.1171534E+04
03/05/2011 07:15:00,  0.1999996E+02, -0.1001601E-07,  0.2000009E+03,  0.7837604E+02,  0.2749146E+04,  0.1567834E+04
03/05/2011 07:30:00,  0.2000010E+02, -0.9558114E-08,  0.2000023E+03,  0.1048213E+03,  0.3672861E+04,  0.2096647E+04
03/05/2011 07:45:00,  0.2000002E+02, -0.9174181E-08,  0.2000015E+03,  0.1119521E+03,  0.3920967E+04,  0.2239189E+04
03/05/2011 08:00:00,  0.2000003E+02, -0.8858357E-08,  0.2000015E+03,  0.1055471E+03,  0.3695867E+04,  0.2111045E+04
03/05/2011 08:15:00,  0.2000009E+02, -0.8477407E-08,  0.2000021E+03,  0.1135728E+03,  0.3976177E+04,  0.2271529E+04
03/05/2011 08:30:00,  0.2000003E+02, -0.8082524E-08,  0.2000013E+03,  0.1294783E+03,  0.4532493E+04,  0.2589621E+04
03/05/2011 08:45:00,  0.2000000E+02, -0.7720128E-08,  0.2000010E+03,  0.1293079E+03,  0.4526252E+04,  0.2586198E+04
03/05/2011 09:00:00,  0.2000005E+02, -0.7436036E-08,  0.2000015E+03,  0.1191626E+03,  0.4171001E+04,  0.2383283E+04
03/05/2011 09:15:00,  0.2000010E+02, -0.7134850E-08,  0.2000018E+03,  0.1055907E+03,  0.3695883E+04,  0.2111839E+04
03/05/2011 09:30:00,  0.2000012E+02, -0.6829190E-08,  0.2000015E+03,  0.9953306E+02,  0.3483807E+04,  0.1990683E+04
03/05/2011 09:45:00,  0.2000011E+02, -0.6531424E-08,  0.2000011E+03,  0.8966701E+02,  0.3138455E+04,  0.1793359E+04
03/05/2011 10:00:00,  0.2000006E+02, -0.6305271E-08,  0.2000002E+03,  0.8082697E+02,  0.2829028E+04,  0.1616556E+04
03/05/2011 10:15:00,  0.2000008E+02, -0.6127794E-08,  0.2000001E+03,  0.5966902E+02,  0.2088484E+04,  0.1193396E+04
03/05/2011 10:30:00,  0.2000005E+02, -0.5955390E-08,  0.1999993E+03,  0.4570884E+02,  0.1599868E+04,  0.9141893E+03
03/05/2011 10:45:00,  0.2000011E+02, -0.5765082E-08,  0.1999991E+03,  0.4063419E+02,  0.1422250E+04,  0.8126904E+03
03/05/2011 11:00:00,  0.2000012E+02, -0.5596315E-08,  0.1999982E+03,  0.3977673E+02,  0.1392234E+04,  0.7955336E+03
03/05/2011 11:15:00,  0.2000006E+02, -0.5446037E-08,  0.1999965E+03,  0.1150305E+02,  0.4030208E+03,  0.2300552E+03
03/05/2011 11:30:00,  0.2000002E+02, -0.5308450E-08,  0.1999954E+03, -0.1650940E+02, -0.5760391E+03, -0.3304911E+03
03/05/2011 11:45:00,  0.1999987E+02, -0.5162397E-08,  0.1999933E+03, -0.2735737E+02, -0.9542341E+03, -0.5479395E+03
03/05/2011 12:00:00,  0.1999990E+02, -0.5027891E-08,  0.1999933E+03, -0.2655276E+02, -0.9252285E+03, -0.5320725E+03
03/05/2011 12:15:00,  0.2000002E+02, -0.4922894E-08,  0.1999942E+03, -0.5540738E+02, -0.1928468E+04, -0.1110632E+04
03/05/2011 12:30:00,  0.2000006E+02, -0.4841959E-08,  0.1999943E+03, -0.8576122E+02, -0.2975023E+04, -0.1719272E+04
03/05/2011 12:45:00,  0.2000001E+02, -0.4753537E-08,  0.1999935E+03, -0.9279440E+02, -0.3200366E+04, -0.1860029E+04
03/05/2011 13:00:00,  0.2000001E+02, -0.4656698E-08,  0.1999935E+03, -0.8647004E+02, -0.2959071E+04, -0.1732732E+04
03/05/2011 13:15:00,  0.2000013E+02, -0.4579007E-08,  0.1999946E+03, -0.1027472E+03, -0.3477112E+04, -0.2057646E+04
03/05/2011 13:30:00,  0.2000006E+02, -0.4538041E-08,  0.1999938E+03, -0.1220360E+03, -0.4060302E+04, -0.2441096E+04
03/05/2011 13:45:00,  0.1999998E+02, -0.4492475E-08,  0.1999930E+03, -0.1240501E+03, -0.4025916E+04, -0.2476945E+04
03/05/2011 14:00:00,  0.2000008E+02, -0.4406408E-08,  0.1999940E+03, -0.1137949E+03, -0.3586740E+04, -0.2267469E+04
03/05/2011 14:15:00,  0.2000003E+02, -0.4310317E-08,  0.1999935E+03, -0.1215647E+03, -0.3708019E+04, -0.2416750E+04
03/05/2011 14:30:00,  0.2000014E+02, -0.4238013E-08,  0.1999946E+03, -0.1364084E+03, -0.3989128E+04, -0.2703872E+04
03/05/2011 14:45:00,  0.2000000E+02, -0.4170909E-08,  0.1999932E+03, -0.1389102E+03, -0.3858469E+04, -0.2743847E+04
03/05/2011 15:00:00,  0.1999999E+02, -0.4095121E-08,  0.1999932E+03, -0.1325011E+03, -0.3475615E+04, -0.2607588E+04
03/05/2011 15:15:00,  0.2000000E+02, -0.4023395E-08,  0.1999934E+03, -0.1279708E+03, -0.3168279E+04, -0.2509596E+04
03/05/2011 15:30:00,  0.2000004E+02, -0.3976383E-08,  0.1999938E+03, -0.1287376E+03, -0.3008276E+04, -0.2516210E+04
03/05/2011 15:45:00,  0.2000007E+02, -0.3934206E-08,  0.1999943E+03, -0.1237431E+03, -0.2720366E+04, -0.2410530E+04
03/05/2011 16:00:00,  0.1999995E+02, -0.3881286E-08,  0.1999932E+03, -0.1165295E+03, -0.2418941E+04, -0.2263302E+04
03/05/2011 16:15:00,  0.2000002E+02, -0.3816396E-08,  0.1999940E+03, -0.9927429E+02, -0.1948764E+04, -0.1922928E+04
03/05/2011 16:30:00,  0.2000000E+02, -0.3762872E-08,  0.1999944E+03, -0.8650990E+02, -0.1616733E+04, -0.1671669E+04
03/05/2011 16:45:00,  0.1999995E+02, -0.3722425E-08,  0.1999946E+03, -0.7878825E+02, -0.1412747E+04, -0.1519261E+04
03/05/2011 17:00:00,  0.2000008E+02, -0.3673561E-08,  0.1999967E+03, -0.7386787E+02, -0.1278024E+04, -0.1421620E+04
03/05/2011 17:15:00,  0.2000007E+02, -0.3599663E-08,  0.1999980E+03, -0.4870233E+02, -0.7767166E+03, -0.9336980E+03
03/05/2011 17:30:00,  0.1999998E+02, -0.3528101E-08,  0.1999980E+03, -0.2279799E+02, -0.2727583E+03, -0.4327632E+03
03/05/2011 17:45:00,  0.2000002E+02, -0.3476270E-08,  0.1999990E+03, -0.1283918E+02, -0.6961563E+02, -0.2398152E+03
03/05/2011 18:00:00,  0.1999996E+02, -0.3421880E-08,  0.1999989E+03, -0.1156209E+02, -0.4913977E+02, -0.2152230E+03
03/05/2011 18:15:00,  0.2000010E+02, -0.3335325E-08,  0.2000007E+03,  0.1160585E+02,  0.5230447E+03,  0.2374248E+03
03/05/2011 18:30:00,  0.2000005E+02, -0.3246716E-08,  0.2000005E+03,  0.3506371E+02,  0.1241391E+04,  0.7019191E+03
03/05/2011 18:45:00,  0.2000011E+02, -0.3180377E-08,  0.2000013E+03,  0.3897174E+02,  0.1376279E+04,  0.7799998E+03
03/05/2011 19:00:00,  0.2000007E+02, -0.3122270E-08,  0.2000012E+03,  0.3301884E+02,  0.1166428E+04,  0.6608785E+03
03/05/2011 19:15:00,  0.2000002E+02, -0.3037801E-08,  0.2000007E+03,  0.5311441E+02,  0.1868308E+04,  0.1062728E+04
03/05/2011 19:30:00,  0.2000005E+02, -0.2944458E-08,  0.2000011E+03,  0.8147922E+02,  0.2858959E+04,  0.1629929E+04
03/05/2011 19:45:00,  0.1999998E+02, -0.2871493E-08,  0.2000005E+03,  0.9014627E+02,  0.3160301E+04,  0.1803179E+04
03/05/2011 20:00:00,  0.2000009E+02, -0.2807010E-08,  0.2000018E+03,  0.8588741E+02,  0.3009719E+04,  0.1717932E+04
03/05/2011 20:15:00,  0.2000010E+02, -0.2719161E-08,  0.2000018E+03,  0.9826358E+02,  0.3441801E+04,  0.1965406E+04
03/05/2011 20:30:00,  0.2000005E+02, -0.2623603E-08,  0.2000014E+03,  0.1157776E+03,  0.4053935E+04,  0.2315645E+04
03/05/2011 20:45:00,  0.2000002E+02, -0.2543454E-08,  0.2000012E+03,  0.1153764E+03,  0.4039294E+04,  0.2307592E+04
03/05/2011 21:00:00,  0.2000010E+02, -0.2478748E-08,  0.2000021E+03,  0.1038227E+03,  0.3634539E+04,  0.2076502E+04
03/05/2011 21:15:00,  0.2000001E+02, -0.2406227E-08,  0.2000011E+03,  0.9608746E+02,  0.3363584E+04,  0.1921786E+04
03/05/2011 21:30:00,  0.2000007E+02, -0.2323593E-08,  0.2000018E+03,  0.9676918E+02,  0.3387295E+04,  0.1935415E+04
03/05/2011 21:45:00,  0.2000008E+02, -0.2251731E-08,  0.2000019E+03,  0.9181062E+02,  0.3213643E+04,  0.1836239E+04
03/05/2011 22:00:00,  0.1999999E+02, -0.2206707E-08,  0.2000009E+03,  0.8293137E+02,  0.2902801E+04,  0.1658651E+04
03/05/2011 22:15:00,  0.2000010E+02, -0.2164149E-08,  0.2000020E+03,  0.6362688E+02,  0.2227099E+04,  0.1272561E+04
03/05/2011 22:30:00,  0.2000011E+02, -0.2113733E-08,  0.2000022E+03,  0.4885654E+02,  0.1710112E+04,  0.9771556E+03
03/05/2011 22:45:00,  0.2000015E+02, -0.2064833E-08,  0.2000027E+03,  0.3994874E+02,  0.1398324E+04,  0.7990018E+03
03/05/2011 23:00:00,  0.2000015E+02, -0.2022551E-08,  0.2000026E+03,  0.3546495E+02,  0.1241381E+04,  0.7093290E+03
03/05/2011 23:15:00,  0.2000011E+02, -0.1983294E-08,  0.2000024E+03,  0.6671798E+01,  0.2341509E+03,  0.1335971E+03
03/05/2011 23:30:00,  0.2000010E+02, -0.1943115E-08,  0.2000023E+03, -0.1956883E+02, -0.6813666E+03, -0.3904647E+03
03/05/2011 23:45:00,  0.2000001E+02, -0.1902701E-08,  0.2000013E+03, -0.2917330E+02, -0.1014558E+04, -0.5817692E+03
04/05/2011 00:00:00,  0.2000015E+02, -0.1867197E-08,  0.2000028E+03, -0.2787112E+02, -0.9671796E+03, -0.5554211E+03
04/05/2011 00:15:00,  0.1999999E+02, -0.1840778E-08,  0.2000012E+03, -0.5875654E+02, -0.2032869E+04, -0.1170097E+04
04/05/2011 00:30:00,  0.2000007E+02, -0.1820440E-08,  0.2000020E+03, -0.8914816E+02, -0.3062277E+04, -0.1773193E+04
04/05/2011 00:45:00,  0.2000004E+02, -0.1799612E-08,  0.2000016E+03, -0.9795917E+02, -0.3325421E+04, -0.1945216E+04
04/05/2011 01:00:00,  0.1999995E+02, -0.1781749E-08,  0.2000009E+03, -0.9335409E+02, -0.3120296E+04, -0.1850147E+04
04/05/2011 01:15:00,  0.2000007E+02, -0.1772078E-08,  0.2000020E+03, -0.1169023E+03, -0.3827223E+04, -0.2311611E+04
04/05/2011 01:30:00,  0.2000001E+02, -0.1770457E-08,  0.2000014E+03, -0.1442376E+03, -0.4567688E+04, -0.2842650E+04
04/05/2011 01:45:00,  0.1999997E+02, -0.1769501E-08,  0.2000010E+03, -0.1492051E+03, -0.4520196E+04, -0.2928378E+04
04/05/2011 02:00:00,  0.2000003E+02, -0.1759692E-08,  0.2000016E+03, -0.1405867E+03, -0.4047510E+04, -0.2746931E+04
04/05/2011 02:15:00,  0.2000012E+02, -0.1744371E-08,  0.2000026E+03, -0.1492020E+03, -0.4059444E+04, -0.2902019E+04
04/05/2011 02:30:00,  0.2000007E+02, -0.1731565E-08,  0.2000020E+03, -0.1637759E+03, -0.4175826E+04, -0.3169860E+04
04/05/2011 02:45:00,  0.2000003E+02, -0.1718159E-08,  0.2000017E+03, -0.1631293E+03, -0.3869923E+04, -0.3141018E+04
04/05/2011 03:00:00,  0.2000004E+02, -0.1702328E-08,  0.2000018E+03, -0.1575510E+03, -0.3467958E+04, -0.3018150E+04
04/05/2011 03:15:00,  0.1999997E+02, -0.1688366E-08,  0.2000011E+03, -0.1461443E+03, -0.3000248E+04, -0.2787088E+04
04/05/2011 03:30:00,  0.1999994E+02, -0.1680117E-08,  0.2000008E+03, -0.1428853E+03, -0.2754032E+04, -0.2714234E+04
04/05/2011 03:45:00,  0.2000004E+02, -0.1674003E-08,  0.2000018E+03, -0.1364291E+03, -0.2473773E+04, -0.2581859E+04
04/05/2011 04:00:00,  0.2000001E+02, -0.1662530E-08,  0.2000015E+03, -0.1300759E+03, -0.2229630E+04, -0.2453130E+04
04/05/2011 04:15:00,  0.1999995E+02, -0.1642016E-08,  0.2000009E+03, -0.1161397E+03, -0.1891585E+04, -0.2183623E+04
04/05/2011 04:30:00,  0.2000014E+02, -0.1622088E-08,  0.2000027E+03, -0.1099295E+03, -0.1715762E+04, -0.2061497E+04
04/05/2011 04:45:00,  0.2000001E+02, -0.1606523E-08,  0.2000014E+03, -0.1111419E+03, -0.1671809E+04, -0.2079299E+04
04/05/2011 05:00:00,  0.2000003E+02, -0.1590396E-08,  0.2000015E+03, -0.1107630E+03, -0.1607064E+04, -0.2067368E+04
04/05/2011 05:15:00,  0.2000002E+02, -0.1565532E-08,  0.2000014E+03, -0.8946298E+02, -0.1241779E+04, -0.1665478E+04
04/05/2011 05:30:00,  0.2000006E+02, -0.1538973E-08,  0.2000019E+03, -0.6596149E+02, -0.8767252E+03, -0.1225050E+04
04/05/2011 05:45:00,  0.2000010E+02, -0.1514432E-08,  0.2000022E+03, -0.5369183E+02, -0.6870514E+03, -0.9950149E+03
04/05/2011 06:00:00,  0.2000006E+02, -0.1487313E-08,  0.2000018E+03, -0.4941786E+02, -0.6220388E+03, -0.9146447E+03
04/05/2011 06:15:00,  0.2000009E+02, -0.1447618E-08,  0.2000022E+03, -0.1737969E+02, -0.1038811E+03, -0.3139469E+03
04/05/2011 06:30:00,  0.2000008E+02, -0.1405326E-08,  0.2000021E+03,  0.1495329E+02,  0.6107339E+03,  0.3049347E+03
04/05/2011 06:45:00,  0.2000005E+02, -0.1369035E-08,  0.2000019E+03,  0.2493656E+02,  0.8896500E+03,  0.4998901E+03
04/05/2011 07:00:00,  0.2000002E+02, -0.1334434E-08,  0.2000015E+03,  0.2165192E+02,  0.7738616E+03,  0.4341449E+03
04/05/2011 07:15:00,  0.1999996E+02, -0.1289890E-08,  0.2000009E+03,  0.4894826E+02,  0.1726615E+04,  0.9798960E+03
04/05/2011 07:30:00,  0.1999990E+02, -0.1244299E-08,  0.2000004E+03,  0.8025112E+02,  0.2819201E+04,  0.1605750E+04
04/05/2011 07:45:00,  0.2000005E+02, -0.1206854E-08,  0.2000019E+03,  0.8654829E+02,  0.3036587E+04,  0.1731488E+04
04/05/2011 08:00:00,  0.2000008E+02, -0.1172640E-08,  0.2000022E+03,  0.8156161E+02,  0.2859930E+04,  0.1631610E+04
04/05/2011 08:15:00,  0.2000003E+02, -0.1129572E-08,  0.2000016E+03,  0.1006125E+03,  0.3525131E+04,  0.2012519E+04
04/05/2011 08:30:00,  0.2000000E+02, -0.1083146E-08,  0.2000012E+03,  0.1279130E+03,  0.4479312E+04,  0.2558438E+04
04/05/2011 08:45:00,  0.2000000E+02, -0.1044020E-08,  0.2000012E+03,  0.1334959E+03,  0.4673799E+04,  0.2670032E+04
04/05/2011 09:00:00,  0.2000005E+02, -0.1007872E-08,  0.2000015E+03,  0.1244576E+03,  0.4356903E+04,  0.2489227E+04
04/05/2011 09:15:00,  0.2000000E+02, -0.9694059E-09,  0.2000009E+03,  0.1276122E+03,  0.4467004E+04,  0.2552296E+04
04/05/2011 09:30:00,  0.2000006E+02, -0.9266849E-09,  0.2000010E+03,  0.1383322E+03,  0.4841998E+04,  0.2766682E+04
04/05/2011 09:45:00,  0.1999998E+02, -0.8890524E-09,  0.1999999E+03,  0.1357870E+03,  0.4752786E+04,  0.2715771E+04
04/05/2011 10:00:00,  0.2000002E+02, -0.8545065E-09,  0.2000000E+03,  0.1247879E+03,  0.4367733E+04,  0.2495782E+04
04/05/2011 10:15:00,  0.2000010E+02, -0.8200768E-09,  0.2000005E+03,  0.1094527E+03,  0.3830953E+04,  0.2189075E+04
04/05/2011 10:30:00,  0.2000005E+02, -0.7820490E-09,  0.1999994E+03,  0.1017923E+03,  0.3562810E+04,  0.2035862E+04
04/05/2011 10:45:00,  0.2000005E+02, -0.7482203E-09,  0.1999986E+03,  0.9350636E+02,  0.3272782E+04,  0.1870138E+04
04/05/2011 11:00:00,  0.2000003E+02, -0.7180500E-09,  0.1999975E+03,  0.8631573E+02,  0.3021097E+04,  0.1726319E+04
04/05/2011 11:15:00,  0.2000003E+02, -0.6887089E-09,  0.1999966E+03,  0.5987368E+02,  0.2095616E+04,  0.1197471E+04
04/05/2011 11:30:00,  0.2000009E+02, -0.6564812E-09,  0.1999967E+03,  0.3356437E+02,  0.1174890E+04,  0.6712653E+03
04/05/2011 11:45:00,  0.1999992E+02, -0.6264176E-09,  0.1999950E+03,  0.1872395E+02,  0.6556246E+03,  0.3744211E+03
04/05/2011 12:00:00,  0.2000008E+02, -0.6034558E-09,  0.1999967E+03,  0.1483998E+02,  0.5196628E+03,  0.2967407E+03
04/05/2011 12:15:00,  0.2000011E+02, -0.5896748E-09,  0.1999974E+03, -0.1316502E+02, -0.4596087E+03, -0.2635970E+03
04/05/2011 12:30:00,  0.2000002E+02, -0.5800390E-09,  0.1999966E+03, -0.3862447E+02, -0.1348473E+04, -0.7730702E+03
04/05/2011 12:45:00,  0.2000005E+02, -0.5712283E-09,  0.1999969E+03, -0.4296289E+02, -0.1498075E+04, -0.8598220E+03
04/05/2011 13:00:00,  0.1999991E+02, -0.5665721E-09,  0.1999955E+03, -0.3577266E+02, -0.1245383E+04, -0.7158659E+03
04/05/2011 13:15:00,  0.2000015E+02, -0.5714899E-09,  0.1999979E+03, -0.6559011E+02, -0.2278524E+04, -0.1312346E+04
04/05/2011 13:30:00,  0.2000003E+02, -0.5806155E-09,  0.1999967E+03, -0.1003368E+03, -0.3469129E+04, -0.2006548E+04
04/05/2011 13:45:00,  0.2000002E+02, -0.5908928E-09,  0.1999966E+03, -0.1129369E+03, -0.3872461E+04, -0.2256301E+04
04/05/2011 14:00:00,  0.1999997E+02, -0.6075418E-09,  0.1999961E+03, -0.1095790E+03, -0.3713313E+04, -0.2186071E+04
04/05/2011 14:15:00,  0.2000002E+02, -0.6357849E-09,  0.1999966E+03, -0.1293053E+03, -0.4310717E+04, -0.2574528E+04
04/05/2011 14:30:00,  0.2000004E+02, -0.6673804E-09,  0.1999968E+03, -0.1486770E+03, -0.4835090E+04, -0.2951402E+04
04/05/2011 14:45:00,  0.1999995E+02, -0.6916222E-09,  0.1999959E+03, -0.1471125E+03, -0.4629077E+04, -0.2908996E+04
04/05/2011 15:00:00,  0.2000001E+02, -0.7156467E-09,  0.1999966E+03, -0.1363822E+03, -0.4132849E+04, -0.2685206E+04
04/05/2011 15:15:00,  0.2000001E+02, -0.7448457E-09,  0.1999966E+03, -0.1346416E+03, -0.3912575E+04, -0.2638764E+04
04/05/2011 15:30:00,  0.2000008E+02, -0.7717568E-09,  0.1999974E+03, -0.1390072E+03, -0.3864236E+04, -0.2711642E+04
04/05/2011 15:45:00,  0.2000004E+02, -0.7982613E-09,  0.1999971E+03, -0.1341738E+03, -0.3546872E+04, -0.2603998E+04
04/05/2011 16:00:00,  0.2000005E+02, -0.8242053E-09,  0.1999973E+03, -0.1287105E+03, -0.3238094E+04, -0.2485912E+04
04/05/2011 16:15:00,  0.2000006E+02, -0.8501531E-09,  0.1999974E+03, -0.1215628E+03, -0.2908897E+04, -0.2336865E+04
04/05/2011 16:30:00,  0.2000003E+02, -0.8724866E-09,  0.1999976E+03, -0.1177975E+03, -0.2688506E+04, -0.2254669E+04
04/05/2011 16:45:00,  0.2000005E+02, -0.8950245E-09,  0.1999983E+03, -0.1143905E+03, -0.2486645E+04, -0.2179755E+04
04/05/2011 17:00:00,  0.2000000E+02, -0.9150611E-09,  0.1999983E+03, -0.1106357E+03, -0.2297334E+04, -0.2099413E+04
04/05/2011 17:15:00,  0.1999998E+02, -0.9297941E-09,  0.1999987E+03, -0.9702713E+02, -0.1921385E+04, -0.1833228E+04
04/05/2011 17:30:00,  0.2000004E+02, -0.9387175E-09,  0.1999998E+03, -0.8419015E+02, -0.1598647E+04, -0.1584715E+04
04/05/2011 17:45:00,  0.2000005E+02, -0.9473736E-09,  0.2000002E+03, -0.7905891E+02, -0.1451479E+04, -0.1483628E+04
04/05/2011 18:00:00,  0.2000006E+02, -0.9530794E-09,  0.2000005E+03, -0.7841823E+02, -0.1397760E+04, -0.1467637E+04
04/05/2011 18:15:00,  0.1999996E+02, -0.9505604E-09,  0.1999998E+03, -0.5328020E+02, -0.8974532E+03, -0.9924553E+03
04/05/2011 18:30:00,  0.2000002E+02, -0.9425214E-09,  0.2000006E+03, -0.2698386E+02, -0.3849699E+03, -0.4969319E+03
04/05/2011 18:45:00,  0.2000013E+02, -0.9360640E-09,  0.2000018E+03, -0.1466734E+02, -0.1409714E+03, -0.2647178E+03
04/05/2011 19:00:00,  0.2000006E+02, -0.9258556E-09,  0.2000013E+03, -0.1331056E+02, -0.1286265E+03, -0.2401295E+03
04/05/2011 19:15:00,  0.2000005E+02, -0.9069412E-09,  0.2000014E+03,  0.1226493E+02,  0.4751291E+03,  0.2488702E+03
04/05/2011 19:30:00,  0.1999984E+02, -0.8847788E-09,  0.1999994E+03,  0.4144431E+02,  0.1463705E+04,  0.8299110E+03
04/05/2011 19:45:00,  0.2000010E+02, -0.8674760E-09,  0.2000020E+03,  0.4810505E+02,  0.1694609E+04,  0.9629600E+03
04/05/2011 20:00:00,  0.2000011E+02, -0.8500569E-09,  0.2000022E+03,  0.4216683E+02,  0.1484949E+04,  0.8440591E+03
04/05/2011 20:15:00,  0.2000002E+02, -0.8256760E-09,  0.2000014E+03,  0.6455650E+02,  0.2266927E+04,  0.1291728E+04
04/05/2011 20:30:00,  0.1999995E+02, -0.7984898E-09,  0.2000007E+03,  0.9612567E+02,  0.3369697E+04,  0.1922945E+04
04/05/2011 20:45:00,  0.2000003E+02, -0.7776551E-09,  0.2000015E+03,  0.1058664E+03,  0.3708801E+04,  0.2117617E+04
04/05/2011 21:00:00,  0.2000010E+02, -0.7569072E-09,  0.2000023E+03,  0.1007274E+03,  0.3527749E+04,  0.2014744E+04
04/05/2011 21:15:00,  0.2000005E+02, -0.7295572E-09,  0.2000018E+03,  0.1061205E+03,  0.3715729E+04,  0.2122546E+04
04/05/2011 21:30:00,  0.2000004E+02, -0.7010060E-09,  0.2000017E+03,  0.1164650E+03,  0.4077257E+04,  0.2329393E+04
04/05/2011 21:45:00,  0.2000004E+02, -0.6767253E-09,  0.2000018E+03,  0.1092629E+03,  0.3824831E+04,  0.2185322E+04
04/05/2011 22:00:00,  0.2000006E+02, -0.6569618E-09,  0.2000019E+03,  0.9407622E+02,  0.3293098E+04,  0.1881573E+04
04/05/2011 22:15:00,  0.2000006E+02, -0.6362840E-09,  0.2000019E+03,  0.7986830E+02,  0.2795702E+04,  0.1597406E+04
04/05/2011 22:30:00,  0.1999999E+02, -0.6141920E-09,  0.2000012E+03,  0.7740199E+02,  0.2709306E+04,  0.1548075E+04
04/05/2011 22:45:00,  0.2000002E+02, -0.5933424E-09,  0.2000016E+03,  0.7386170E+02,  0.2585340E+04,  0.1477266E+04
04/05/2011 23:00:00,  0.2000008E+02, -0.5758512E-09,  0.2000023E+03,  0.6971539E+02,  0.2440180E+04,  0.1394339E+04
04/05/2011 23:15:00,  0.2000009E+02, -0.5627984E-09,  0.2000025E+03,  0.5439412E+02,  0.1903909E+04,  0.1087914E+04
04/05/2011 23:30:00,  0.2000004E+02, -0.5488935E-09,  0.2000020E+03,  0.4388949E+02,  0.1536232E+04,  0.8778227E+03
04/05/2011 23:45:00,  0.2000004E+02, -0.5351178E-09,  0.2000020E+03,  0.3863604E+02,  0.1352350E+04,  0.7727562E+03
05/05/2011 00:00:00,  0.2000000E+02, -0.5233729E-09,  0.2000017E+03,  0.3527441E+02,  0.1234685E+04,  0.7055266E+03
05/05/2011 00:15:00,  0.2000012E+02, -0.5134939E-09,  0.2000029E+03,  0.3049594E+01,  0.1073588E+03,  0.6122146E+02
05/05/2011 00:30:00,  0.2000010E+02, -0.5016887E-09,  0.2000028E+03, -0.2957579E+02, -0.1031399E+04, -0.5897353E+03
05/05/2011 00:45:00,  0.2000003E+02, -0.4888922E-09,  0.2000022E+03, -0.4348019E+02, -0.1513667E+04, -0.8661969E+03
05/05/2011 01:00:00,  0.2000002E+02, -0.4794598E-09,  0.2000020E+03, -0.4285705E+02, -0.1488088E+04, -0.8528488E+03
05/05/2011 01:15:00,  0.2000008E+02, -0.4742863E-09,  0.2000027E+03, -0.7433633E+02, -0.2570286E+04, -0.1477465E+04
05/05/2011 01:30:00,  0.2000012E+02, -0.4681576E-09,  0.2000031E+03, -0.1059064E+03, -0.3628606E+04, -0.2100447E+04
05/05/2011 01:45:00,  0.2000002E+02, -0.4604524E-09,  0.2000021E+03, -0.1134712E+03, -0.3829174E+04, -0.2243597E+04
05/05/2011 02:00:00,  0.2000003E+02, -0.4546536E-09,  0.2000023E+03, -0.1087610E+03, -0.3596035E+04, -0.2142495E+04
05/05/2011 02:15:00,  0.1999999E+02, -0.4525529E-09,  0.2000019E+03, -0.1280453E+03, -0.4119130E+04, -0.2511172E+04
05/05/2011 02:30:00,  0.2000009E+02, -0.4475709E-09,  0.2000029E+03, -0.1490870E+03, -0.4614431E+04, -0.2906967E+04
05/05/2011 02:45:00,  0.1999998E+02, -0.4398621E-09,  0.2000018E+03, -0.1493629E+03, -0.4388017E+04, -0.2890998E+04
05/05/2011 03:00:00,  0.2000006E+02, -0.4329186E-09,  0.2000026E+03, -0.1408443E+03, -0.3909018E+04, -0.2705701E+04
05/05/2011 03:15:00,  0.1999999E+02, -0.4291808E-09,  0.2000019E+03, -0.1483838E+03, -0.3872861E+04, -0.2829042E+04
05/05/2011 03:30:00,  0.2000001E+02, -0.4260760E-09,  0.2000022E+03, -0.1613340E+03, -0.3943116E+04, -0.3052839E+04
05/05/2011 03:45:00,  0.2000004E+02, -0.4221842E-09,  0.2000024E+03, -0.1617329E+03, -0.3666635E+04, -0.3035432E+04
05/05/2011 04:00:00,  0.2000003E+02, -0.4184998E-09,  0.2000023E+03, -0.1561528E+03, -0.3288579E+04, -0.2908442E+04
05/05/2011 04:15:00,  0.2000002E+02, -0.4164742E-09,  0.2000023E+03, -0.1487309E+03, -0.2912304E+04, -0.2750386E+04
05/05/2011 04:30:00,  0.2000000E+02, -0.4146189E-09,  0.2000020E+03, -0.1441687E+03, -0.2647049E+04, -0.2650038E+04
05/05/2011 04:45:00,  0.2000001E+02, -0.4122810E-09,  0.2000021E+03, -0.1356340E+03, -0.2346717E+04, -0.2479738E+04
05/05/2011 05:00:00,  0.1999997E+02, -0.4088911E-09,  0.2000016E+03, -0.1271967E+03, -0.2087265E+04, -0.2314453E+04
05/05/2011 05:15:00,  0.1999995E+02, -0.4046710E-09,  0.2000014E+03, -0.1142727E+03, -0.1783710E+04, -0.2070158E+04
05/05/2011 05:30:00,  0.2000003E+02, -0.3995578E-09,  0.2000022E+03, -0.1057829E+03, -0.1585748E+04, -0.1909552E+04
05/05/2011 05:45:00,  0.2000008E+02, -0.3942708E-09,  0.2000026E+03, -0.1028732E+03, -0.1489631E+04, -0.1851110E+04
05/05/2011 06:00:00,  0.2000006E+02, -0.3882641E-09,  0.2000025E+03, -0.1034412E+03, -0.1454275E+04, -0.1856019E+04
05/05/2011 06:15:00,  0.2000008E+02, -0.3810180E-09,  0.2000027E+03, -0.7580509E+02, -0.1014972E+04, -0.1354683E+04
05/05/2011 06:30:00,  0.2000012E+02, -0.3734662E-09,  0.2000030E+03, -0.4372529E+02, -0.5160160E+03, -0.7743739E+03
05/05/2011 06:45:00,  0.2000003E+02, -0.3663276E-09,  0.2000022E+03, -0.2496672E+02, -0.2247278E+03, -0.4351904E+03
05/05/2011 07:00:00,  0.2000002E+02, -0.3572109E-09,  0.2000020E+03, -0.1900271E+02, -0.1439561E+03, -0.3285004E+03
05/05/2011 07:15:00,  0.2000005E+02, -0.3448694E-09,  0.2000024E+03,  0.1076371E+02,  0.5091362E+03,  0.2284030E+03
05/05/2011 07:30:00,  0.2000007E+02, -0.3330222E-09,  0.2000026E+03,  0.4064188E+02,  0.1438713E+04,  0.8144902E+03
05/05/2011 07:45:00,  0.2000006E+02, -0.3278424E-09,  0.2000024E+03,  0.4596197E+02,  0.1622223E+04,  0.9206230E+03
05/05/2011 08:00:00,  0.2000006E+02, -0.3136663E-09,  0.2000025E+03,  0.3710786E+02,  0.1310185E+04,  0.7433269E+03
05/05/2011 08:15:00,  0.2000006E+02, -0.3014600E-09,  0.2000024E+03,  0.5459236E+02,  0.1920376E+04,  0.1092841E+04
05/05/2011 08:30:00,  0.2000003E+02, -0.2901426E-09,  0.2000021E+03,  0.8135354E+02,  0.2854716E+04,  0.1627833E+04
05/05/2011 08:45:00,  0.2000001E+02, -0.2818757E-09,  0.2000017E+03,  0.8846645E+02,  0.3101516E+04,  0.1769873E+04
05/05/2011 09:00:00,  0.1999998E+02, -0.2734471E-09,  0.2000013E+03,  0.8382932E+02,  0.2937687E+04,  0.1676975E+04
05/05/2011 09:15:00,  0.2000017E+02, -0.2624099E-09,  0.2000031E+03,  0.1060043E+03,  0.3712670E+04,  0.2120359E+04
05/05/2011 09:30:00,  0.2000002E+02, -0.2514577E-09,  0.2000014E+03,  0.1355643E+03,  0.4746324E+04,  0.2711460E+04
05/05/2011 09:45:00,  0.2000002E+02, -0.2431718E-09,  0.2000013E+03,  0.1444393E+03,  0.5056317E+04,  0.2888893E+04
05/05/2011 10:00:00,  0.2000009E+02, -0.2351392E-09,  0.2000019E+03,  0.1362183E+03,  0.4768223E+04,  0.2724438E+04
05/05/2011 10:15:00,  0.2000006E+02, -0.2253346E-09,  0.2000009E+03,  0.1336623E+03,  0.4678546E+04,  0.2673294E+04
05/05/2011 10:30:00,  0.1999998E+02, -0.2153684E-09,  0.1999992E+03,  0.1369261E+03,  0.4792643E+04,  0.2738553E+04
05/05/2011 10:45:00,  0.2000008E+02, -0.2077434E-09,  0.1999992E+03,  0.1290119E+03,  0.4515566E+04,  0.2580257E+04
05/05/2011 11:00:00,  0.2000006E+02, -0.2011818E-09,  0.1999979E+03,  0.1165700E+03,  0.4080047E+04,  0.2331406E+04
05/05/2011 11:15:00,  0.2000010E+02, -0.1947373E-09,  0.1999972E+03,  0.9942655E+02,  0.3480000E+04,  0.1988528E+04
05/05/2011 11:30:00,  0.2000009E+02, -0.1877082E-09,  0.1999963E+03,  0.9187889E+02,  0.3215813E+04,  0.1837568E+04
05/05/2011 11:45:00,  0.2000008E+02, -0.1821949E-09,  0.1999957E+03,  0.8616190E+02,  0.3015707E+04,  0.1723222E+04
05/05/2011 12:00:00,  0.2000002E+02, -0.1777970E-09,  0.1999946E+03,  0.8202180E+02,  0.2870795E+04,  0.1640416E+04
05/05/2011 12:15:00,  0.2000007E+02, -0.1741066E-09,  0.1999948E+03,  0.5823360E+02,  0.2038202E+04,  0.1164648E+04
05/05/2011 12:30:00,  0.2000004E+02, -0.1701616E-09,  0.1999943E+03,  0.3682291E+02,  0.1288828E+04,  0.7364260E+03
05/05/2011 12:45:00,  0.2000008E+02, -0.1655721E-09,  0.1999944E+03,  0.2744284E+02,  0.9605524E+03,  0.5487939E+03
05/05/2011 13:00:00,  0.2000002E+02, -0.1615681E-09,  0.1999937E+03,  0.2560588E+02,  0.8962475E+03,  0.5120558E+03
05/05/2011 13:15:00,  0.2000013E+02, -0.1588923E-09,  0.1999947E+03, -0.9622012E+01, -0.3361744E+03, -0.1931428E+03
05/05/2011 13:30:00,  0.2000009E+02, -0.1563519E-09,  0.1999942E+03, -0.4675594E+02, -0.1634101E+04, -0.9381940E+03
05/05/2011 13:45:00,  0.2000000E+02, -0.1529789E-09,  0.1999933E+03, -0.6033769E+02, -0.2106695E+04, -0.1211302E+04
05/05/2011 14:00:00,  0.2000005E+02, -0.1502020E-09,  0.1999938E+03, -0.5756650E+02, -0.2007048E+04, -0.1156192E+04
05/05/2011 14:15:00,  0.2000007E+02, -0.1495070E-09,  0.1999939E+03, -0.9010139E+02, -0.3134184E+04, -0.1810027E+04
05/05/2011 14:30:00,  0.1999993E+02, -0.1492460E-09,  0.1999925E+03, -0.1243030E+03, -0.4302646E+04, -0.2496669E+04
05/05/2011 14:45:00,  0.1999997E+02, -0.1477477E-09,  0.1999929E+03, -0.1325022E+03, -0.4546849E+04, -0.2659074E+04
05/05/2011 15:00:00,  0.2000001E+02, -0.1464245E-09,  0.1999935E+03, -0.1255279E+03, -0.4253192E+04, -0.2514981E+04
05/05/2011 15:15:00,  0.2000006E+02, -0.1470438E-09,  0.1999940E+03, -0.1375434E+03, -0.4578773E+04, -0.2748612E+04
05/05/2011 15:30:00,  0.2000004E+02, -0.1471775E-09,  0.1999939E+03, -0.1530589E+03, -0.4966062E+04, -0.3046581E+04
05/05/2011 15:45:00,  0.2000007E+02, -0.1457205E-09,  0.1999943E+03, -0.1472044E+03, -0.4621492E+04, -0.2914993E+04
05/05/2011 16:00:00,  0.2000002E+02, -0.1439632E-09,  0.1999939E+03, -0.1354495E+03, -0.4090298E+04, -0.2666128E+04
05/05/2011 16:15:00,  0.2000006E+02, -0.1433441E-09,  0.1999944E+03, -0.1353313E+03, -0.3924892E+04, -0.2647612E+04
05/05/2011 16:30:00,  0.1999999E+02, -0.1430156E-09,  0.1999947E+03, -0.1429163E+03, -0.3953492E+04, -0.2776300E+04
05/05/2011 16:45:00,  0.2000001E+02, -0.1421986E-09,  0.1999959E+03, -0.1418101E+03, -0.3725394E+04, -0.2733888E+04
05/05/2011 17:00:00,  0.2000002E+02, -0.1413894E-09,  0.1999970E+03, -0.1366245E+03, -0.3401961E+04, -0.2613566E+04
05/05/2011 17:15:00,  0.2000005E+02, -0.1411664E-09,  0.1999985E+03, -0.1239636E+03, -0.2918866E+04, -0.2352608E+04
05/05/2011 17:30:00,  0.2000011E+02, -0.1411388E-09,  0.1999998E+03, -0.1141476E+03, -0.2556255E+04, -0.2151548E+04
05/05/2011 17:45:00,  0.2000009E+02, -0.1407755E-09,  0.2000002E+03, -0.1044518E+03, -0.2228175E+04, -0.1956254E+04
05/05/2011 18:00:00,  0.2000001E+02, -0.1400050E-09,  0.1999997E+03, -0.9669194E+02, -0.1975006E+04, -0.1800896E+04
05/05/2011 18:15:00,  0.1999990E+02, -0.1388362E-09,  0.1999991E+03, -0.7522019E+02, -0.1465184E+04, -0.1392731E+04
05/05/2011 18:30:00,  0.2000003E+02, -0.1374952E-09,  0.2000005E+03, -0.5773977E+02, -0.1077869E+04, -0.1063663E+04
05/05/2011 18:45:00,  0.1999998E+02, -0.1361587E-09,  0.2000002E+03, -0.5143115E+02, -0.9309819E+03, -0.9440408E+03
05/05/2011 19:00:00,  0.2000000E+02, -0.1345638E-09,  0.2000006E+03, -0.5208978E+02, -0.9293052E+03, -0.9542828E+03
05/05/2011 19:15:00,  0.2000000E+02, -0.1322721E-09,  0.2000007E+03, -0.3125858E+02, -0.4959821E+03, -0.5661387E+03
05/05/2011 19:30:00,  0.2000008E+02, -0.1299775E-09,  0.2000016E+03, -0.7545240E+01,  0.1547158E+01, -0.1245257E+03
05/05/2011 19:45:00,  0.2000010E+02, -0.1282520E-09,  0.2000019E+03,  0.9713348E+00,  0.1979387E+03,  0.3575768E+02
05/05/2011 20:00:00,  0.2000009E+02, -0.1262571E-09,  0.2000019E+03,  0.6734579E+00,  0.1785934E+03,  0.2896291E+02
05/05/2011 20:15:00,  0.2000001E+02, -0.1231703E-09,  0.2000012E+03,  0.3111185E+02,  0.1101871E+04,  0.6235275E+03
05/05/2011 20:30:00,  0.2000014E+02, -0.1199700E-09,  0.2000026E+03,  0.6670166E+02,  0.2345243E+04,  0.1335103E+04
05/05/2011 20:45:00,  0.2000014E+02, -0.1175956E-09,  0.2000026E+03,  0.7920188E+02,  0.2780064E+04,  0.1584844E+04
05/05/2011 21:00:00,  0.2000006E+02, -0.1150891E-09,  0.2000018E+03,  0.7628210E+02,  0.2675670E+04,  0.1526231E+04
05/05/2011 21:15:00,  0.2000008E+02, -0.1112445E-09,  0.2000021E+03,  0.9252810E+02,  0.3242648E+04,  0.1850990E+04
05/05/2011 21:30:00,  0.2000000E+02, -0.1071937E-09,  0.2000014E+03,  0.1147234E+03,  0.4018038E+04,  0.2294753E+04
05/05/2011 21:45:00,  0.2000011E+02, -0.1043869E-09,  0.2000024E+03,  0.1139470E+03,  0.3989881E+04,  0.2279127E+04
05/05/2011 22:00:00,  0.1999998E+02, -0.1019751E-09,  0.2000012E+03,  0.1031068E+03,  0.3609868E+04,  0.2062262E+04
05/05/2011 22:15:00,  0.2000009E+02, -0.9878247E-10,  0.2000023E+03,  0.1038312E+03,  0.3634865E+04,  0.2076716E+04
05/05/2011 22:30:00,  0.2000008E+02, -0.9521316E-10,  0.2000023E+03,  0.1142568E+03,  0.3999510E+04,  0.2285204E+04
05/05/2011 22:45:00,  0.2000010E+02, -0.9232441E-10,  0.2000026E+03,  0.1117620E+03,  0.3912023E+04,  0.2235292E+04
05/05/2011 23:00:00,  0.2000006E+02, -0.8987443E-10,  0.2000022E+03,  0.1016978E+03,  0.3559664E+04,  0.2033997E+04
05/05/2011 23:15:00,  0.2000013E+02, -0.8718642E-10,  0.2000030E+03,  0.9200954E+02,  0.3220508E+04,  0.1840228E+04
05/05/2011 23:30:00,  0.2000006E+02, -0.8451814E-10,  0.2000024E+03,  0.8703996E+02,  0.3046529E+04,  0.1740833E+04
05/05/2011 23:45:00,  0.2000009E+02, -0.8225289E-10,  0.2000028E+03,  0.8100444E+02,  0.2835254E+04,  0.1620122E+04
06/05/2011 00:00:00,  0.2000005E+02, -0.8060921E-10,  0.2000023E+03,  0.7404962E+02,  0.2591814E+04,  0.1481026E+04
06/05/2011 00:15:00,  0.2000005E+02, -0.7921409E-10,  0.2000024E+03,  0.5017601E+02,  0.1756223E+04,  0.1003555E+04
06/05/2011 00:30:00,  0.2000006E+02, -0.7760236E-10,  0.2000026E+03,  0.2950702E+02,  0.1032816E+04,  0.5901843E+03
06/05/2011 00:45:00,  0.2000010E+02, -0.7557531E-10,  0.2000030E+03,  0.1842667E+02,  0.6451304E+03,  0.3686734E+03
06/05/2011 01:00:00,  0.2000003E+02, -0.7392665E-10,  0.2000023E+03,  0.1581332E+02,  0.5536721E+03,  0.3164343E+03
06/05/2011 01:15:00,  0.2000012E+02, -0.7297363E-10,  0.2000033E+03, -0.1820997E+02, -0.6354974E+03, -0.3626494E+03
06/05/2011 01:30:00,  0.2000006E+02, -0.7208139E-10,  0.2000027E+03, -0.5331935E+02, -0.1859500E+04, -0.1061310E+04
06/05/2011 01:45:00,  0.2000005E+02, -0.7057475E-10,  0.2000025E+03, -0.6710402E+02, -0.2334185E+04, -0.1333797E+04
06/05/2011 02:00:00,  0.1999996E+02, -0.6936351E-10,  0.2000017E+03, -0.6539507E+02, -0.2266081E+04, -0.1297546E+04
06/05/2011 02:15:00,  0.1999997E+02, -0.6921991E-10,  0.2000018E+03, -0.9778537E+02, -0.3368720E+04, -0.1936671E+04
06/05/2011 02:30:00,  0.2000005E+02, -0.6933423E-10,  0.2000026E+03, -0.1319003E+03, -0.4490609E+04, -0.2604124E+04
06/05/2011 02:45:00,  0.2000007E+02, -0.6869523E-10,  0.2000028E+03, -0.1403655E+03, -0.4686421E+04, -0.2758486E+04
06/05/2011 03:00:00,  0.2000009E+02, -0.6814660E-10,  0.2000030E+03, -0.1339937E+03, -0.4352877E+04, -0.2617729E+04
06/05/2011 03:15:00,  0.2000006E+02, -0.6854408E-10,  0.2000026E+03, -0.1534967E+03, -0.4819309E+04, -0.2979038E+04
06/05/2011 03:30:00,  0.2000001E+02, -0.6881761E-10,  0.2000023E+03, -0.1760289E+03, -0.5265585E+04, -0.3386435E+04
06/05/2011 03:45:00,  0.2000007E+02, -0.6823138E-10,  0.2000028E+03, -0.1774277E+03, -0.4995407E+04, -0.3378220E+04
06/05/2011 04:00:00,  0.2000002E+02, -0.6752902E-10,  0.2000023E+03, -0.1678685E+03, -0.4412776E+04, -0.3161048E+04
06/05/2011 04:15:00,  0.2000002E+02, -0.6758240E-10,  0.2000024E+03, -0.1682582E+03, -0.4137055E+04, -0.3136594E+04
06/05/2011 04:30:00,  0.2000007E+02, -0.6805163E-10,  0.2000027E+03, -0.1742512E+03, -0.3986149E+04, -0.3214750E+04
06/05/2011 04:45:00,  0.2000003E+02, -0.6806324E-10,  0.2000024E+03, -0.1693644E+03, -0.3593270E+04, -0.3092542E+04
06/05/2011 05:00:00,  0.2000003E+02, -0.6786421E-10,  0.2000024E+03, -0.1621439E+03, -0.3208407E+04, -0.2933576E+04
06/05/2011 05:15:00,  0.1999999E+02, -0.6794963E-10,  0.2000019E+03, -0.1506893E+03, -0.2792067E+04, -0.2703610E+04
06/05/2011 05:30:00,  0.2000002E+02, -0.6822088E-10,  0.2000022E+03, -0.1467625E+03, -0.2559594E+04, -0.2613169E+04
06/05/2011 05:45:00,  0.1999999E+02, -0.6815191E-10,  0.2000020E+03, -0.1429009E+03, -0.2356395E+04, -0.2526700E+04
06/05/2011 06:00:00,  0.1999998E+02, -0.6782475E-10,  0.2000018E+03, -0.1371330E+03, -0.2144394E+04, -0.2408668E+04
06/05/2011 06:15:00,  0.2000001E+02, -0.6739644E-10,  0.2000022E+03, -0.1171780E+03, -0.1742919E+04, -0.2045488E+04
06/05/2011 06:30:00,  0.2000002E+02, -0.6700274E-10,  0.2000023E+03, -0.9880121E+02, -0.1408118E+04, -0.1715456E+04
06/05/2011 06:45:00,  0.2000008E+02, -0.6647195E-10,  0.2000028E+03, -0.9004709E+02, -0.1243204E+04, -0.1556811E+04
06/05/2011 07:00:00,  0.2000008E+02, -0.6557335E-10,  0.2000029E+03, -0.8673257E+02, -0.1167549E+04, -0.1493982E+04
06/05/2011 07:15:00,  0.2000009E+02, -0.6421593E-10,  0.2000030E+03, -0.5414505E+02, -0.6784666E+03, -0.9252841E+03
06/05/2011 07:30:00,  0.2000012E+02, -0.6291052E-10,  0.2000033E+03, -0.2127404E+02, -0.1581765E+03, -0.3491816E+03
06/05/2011 07:45:00,  0.2000005E+02, -0.6180873E-10,  0.2000026E+03, -0.7005098E+01,  0.9379470E+02, -0.9593829E+02
06/05/2011 08:00:00,  0.2000011E+02, -0.6236007E-10,  0.2000031E+03, -0.5482658E+01,  0.9918042E+02, -0.7160045E+02
06/05/2011 08:15:00,  0.2000014E+02, -0.5941306E-10,  0.2000034E+03,  0.2716778E+02,  0.9693229E+03,  0.5458029E+03
06/05/2011 08:30:00,  0.2000005E+02, -0.5615910E-10,  0.2000024E+03,  0.6369619E+02,  0.2243407E+04,  0.1275792E+04
06/05/2011 08:45:00,  0.2000005E+02, -0.5466255E-10,  0.2000023E+03,  0.7380038E+02,  0.2593576E+04,  0.1477419E+04
06/05/2011 09:00:00,  0.2000010E+02, -0.5355573E-10,  0.2000027E+03,  0.6783003E+02,  0.2381899E+04,  0.1357655E+04
06/05/2011 09:15:00,  0.2000005E+02, -0.5086250E-10,  0.2000020E+03,  0.8984567E+02,  0.3150273E+04,  0.1797681E+04
06/05/2011 09:30:00,  0.2000016E+02, -0.4861378E-10,  0.2000030E+03,  0.1195002E+03,  0.4186188E+04,  0.2390507E+04
06/05/2011 09:45:00,  0.2000010E+02, -0.4703063E-10,  0.2000022E+03,  0.1266948E+03,  0.4436567E+04,  0.2534208E+04
06/05/2011 10:00:00,  0.2000001E+02, -0.4567773E-10,  0.2000010E+03,  0.1158205E+03,  0.4055111E+04,  0.2316607E+04
06/05/2011 10:15:00,  0.2000006E+02, -0.4385802E-10,  0.2000009E+03,  0.1278947E+03,  0.4477215E+04,  0.2558024E+04
06/05/2011 10:30:00,  0.2000005E+02, -0.4177486E-10,  0.1999998E+03,  0.1517464E+03,  0.5311690E+04,  0.3035011E+04
06/05/2011 10:45:00,  0.2000005E+02, -0.4023065E-10,  0.1999987E+03,  0.1558570E+03,  0.5455341E+04,  0.3117188E+04
06/05/2011 11:00:00,  0.2000003E+02, -0.3899752E-10,  0.1999975E+03,  0.1460430E+03,  0.5111712E+04,  0.2920882E+04
06/05/2011 11:15:00,  0.2000006E+02, -0.3748536E-10,  0.1999967E+03,  0.1387956E+03,  0.4857976E+04,  0.2775919E+04
06/05/2011 11:30:00,  0.2000005E+02, -0.3582746E-10,  0.1999958E+03,  0.1411743E+03,  0.4941185E+04,  0.2823482E+04
06/05/2011 11:45:00,  0.1999997E+02, -0.3439255E-10,  0.1999945E+03,  0.1351894E+03,  0.4731684E+04,  0.2703777E+04
06/05/2011 12:00:00,  0.2000004E+02, -0.3333884E-10,  0.1999947E+03,  0.1246795E+03,  0.4363821E+04,  0.2493575E+04
06/05/2011 12:15:00,  0.2000007E+02, -0.3241464E-10,  0.1999946E+03,  0.1017769E+03,  0.3562219E+04,  0.2035519E+04
06/05/2011 12:30:00,  0.2000005E+02, -0.3149881E-10,  0.1999942E+03,  0.8988605E+02,  0.3146033E+04,  0.1797698E+04
06/05/2011 12:45:00,  0.2000004E+02, -0.3061034E-10,  0.1999939E+03,  0.8429041E+02,  0.2950181E+04,  0.1685782E+04
06/05/2011 13:00:00,  0.2000011E+02, -0.2990335E-10,  0.1999944E+03,  0.8108294E+02,  0.2837916E+04,  0.1621630E+04
06/05/2011 13:15:00,  0.2000002E+02, -0.2934315E-10,  0.1999934E+03,  0.4722388E+02,  0.1652849E+04,  0.9444446E+03
06/05/2011 13:30:00,  0.2000010E+02, -0.2877900E-10,  0.1999941E+03,  0.1651823E+02,  0.5782852E+03,  0.3301540E+03
06/05/2011 13:45:00,  0.1999999E+02, -0.2806637E-10,  0.1999929E+03,  0.3473288E+01,  0.1218546E+03,  0.6907452E+02
06/05/2011 14:00:00,  0.2000006E+02, -0.2745150E-10,  0.1999936E+03,  0.2172927E+01,  0.7637919E+02,  0.4303673E+02
06/05/2011 14:15:00,  0.2000005E+02, -0.2716503E-10,  0.1999935E+03, -0.3626440E+02, -0.1267941E+04, -0.7279029E+03
06/05/2011 14:30:00,  0.2000007E+02, -0.2702277E-10,  0.1999937E+03, -0.7383966E+02, -0.2580496E+04, -0.1482687E+04
06/05/2011 14:45:00,  0.1999998E+02, -0.2669157E-10,  0.1999928E+03, -0.8374265E+02, -0.2923377E+04, -0.1682362E+04
06/05/2011 15:00:00,  0.1999995E+02, -0.2633400E-10,  0.1999926E+03, -0.7684257E+02, -0.2678364E+04, -0.1544365E+04
06/05/2011 15:15:00,  0.2000005E+02, -0.2637616E-10,  0.1999936E+03, -0.1082987E+03, -0.3765461E+04, -0.2176787E+04
06/05/2011 15:30:00,  0.2000013E+02, -0.2665734E-10,  0.1999945E+03, -0.1399382E+03, -0.4841798E+04, -0.2811639E+04
06/05/2011 15:45:00,  0.2000003E+02, -0.2673635E-10,  0.1999937E+03, -0.1460235E+03, -0.5009330E+04, -0.2930265E+04
06/05/2011 16:00:00,  0.1999994E+02, -0.2671517E-10,  0.1999929E+03, -0.1373832E+03, -0.4654641E+04, -0.2750752E+04
06/05/2011 16:15:00,  0.2000006E+02, -0.2706884E-10,  0.1999942E+03, -0.1470746E+03, -0.4895708E+04, -0.2934639E+04
06/05/2011 16:30:00,  0.1999996E+02, -0.2748015E-10,  0.1999938E+03, -0.1580197E+03, -0.5131118E+04, -0.3136523E+04
06/05/2011 16:45:00,  0.2000007E+02, -0.2755757E-10,  0.1999962E+03, -0.1521995E+03, -0.4788789E+04, -0.3000258E+04
06/05/2011 17:00:00,  0.1999995E+02, -0.2744290E-10,  0.1999962E+03, -0.1415634E+03, -0.4297098E+04, -0.2768581E+04
06/05/2011 17:15:00,  0.2000001E+02, -0.2753427E-10,  0.1999980E+03, -0.1394264E+03, -0.4067044E+04, -0.2703080E+04
06/05/2011 17:30:00,  0.2000003E+02, -0.2784810E-10,  0.1999990E+03, -0.1456490E+03, -0.4067892E+04, -0.2797784E+04
06/05/2011 17:45:00,  0.2000002E+02, -0.2808081E-10,  0.1999995E+03, -0.1462021E+03, -0.3881893E+04, -0.2779337E+04
06/05/2011 18:00:00,  0.2000005E+02, -0.2819350E-10,  0.2000002E+03, -0.1423036E+03, -0.3584340E+04, -0.2676992E+04
06/05/2011 18:15:00,  0.2000007E+02, -0.2842000E-10,  0.2000009E+03, -0.1308253E+03, -0.3117373E+04, -0.2434933E+04
06/05/2011 18:30:00,  0.1999996E+02, -0.2880105E-10,  0.2000000E+03, -0.1223908E+03, -0.2768440E+04, -0.2256013E+04
06/05/2011 18:45:00,  0.1999998E+02, -0.2909729E-10,  0.2000004E+03, -0.1157379E+03, -0.2489986E+04, -0.2114132E+04
06/05/2011 19:00:00,  0.2000006E+02, -0.2918379E-10,  0.2000013E+03, -0.1100499E+03, -0.2257825E+04, -0.1993417E+04
06/05/2011 19:15:00,  0.1999997E+02, -0.2917679E-10,  0.2000005E+03, -0.8413310E+02, -0.1638727E+04, -0.1510332E+04
06/05/2011 19:30:00,  0.2000004E+02, -0.2922247E-10,  0.2000014E+03, -0.6197898E+02, -0.1153361E+04, -0.1104135E+04
06/05/2011 19:45:00,  0.2000006E+02, -0.2925919E-10,  0.2000017E+03, -0.5303336E+02, -0.9526621E+03, -0.9392768E+03
06/05/2011 20:00:00,  0.2000007E+02, -0.2908847E-10,  0.2000019E+03, -0.5167497E+02, -0.9114225E+03, -0.9121021E+03
06/05/2011 20:15:00,  0.1999990E+02, -0.2869397E-10,  0.2000003E+03, -0.1683644E+02, -0.1915564E+03, -0.2823615E+03
06/05/2011 20:30:00,  0.2000005E+02, -0.2835272E-10,  0.2000018E+03,  0.2007958E+02,  0.7396420E+03,  0.4066626E+03
06/05/2011 20:45:00,  0.2000005E+02, -0.2813581E-10,  0.2000018E+03,  0.3606537E+02,  0.1274874E+04,  0.7230251E+03
06/05/2011 21:00:00,  0.2000009E+02, -0.2775175E-10,  0.2000023E+03,  0.3724603E+02,  0.1314477E+04,  0.7464120E+03
06/05/2011 21:15:00,  0.2000001E+02, -0.2699026E-10,  0.2000016E+03,  0.6738869E+02,  0.2367503E+04,  0.1349004E+04
06/05/2011 21:30:00,  0.2000013E+02, -0.2621395E-10,  0.2000028E+03,  0.9918973E+02,  0.3477974E+04,  0.1984677E+04
06/05/2011 21:45:00,  0.2000000E+02, -0.2569336E-10,  0.2000015E+03,  0.1035956E+03,  0.3630017E+04,  0.2072500E+04
06/05/2011 22:00:00,  0.2000011E+02, -0.2516672E-10,  0.2000026E+03,  0.9332920E+02,  0.3269287E+04,  0.1866981E+04
06/05/2011 22:15:00,  0.2000009E+02, -0.2438148E-10,  0.2000024E+03,  0.1054822E+03,  0.3693764E+04,  0.2109923E+04
06/05/2011 22:30:00,  0.2000006E+02, -0.2350008E-10,  0.2000022E+03,  0.1270025E+03,  0.4446295E+04,  0.2540237E+04
06/05/2011 22:45:00,  0.1999999E+02, -0.2279132E-10,  0.2000016E+03,  0.1293569E+03,  0.4528243E+04,  0.2587262E+04
06/05/2011 23:00:00,  0.2000004E+02, -0.2220502E-10,  0.2000021E+03,  0.1200038E+03,  0.4200618E+04,  0.2400165E+04
06/05/2011 23:15:00,  0.2000008E+02, -0.2145399E-10,  0.2000026E+03,  0.1176215E+03,  0.4117068E+04,  0.2352497E+04
06/05/2011 23:30:00,  0.2000002E+02, -0.2061760E-10,  0.2000021E+03,  0.1234057E+03,  0.4319411E+04,  0.2468168E+04
06/05/2011 23:45:00,  0.2000009E+02, -0.1986138E-10,  0.2000028E+03,  0.1183460E+03,  0.4142250E+04,  0.2366965E+04
07/05/2011 00:00:00,  0.2000001E+02, -0.1927058E-10,  0.2000020E+03,  0.1072058E+03,  0.3752300E+04,  0.2144156E+04
